{
    "photos": {
        "page": 2,
        "pages": 2705,
        "perpage": 100,
        "total": "270454",
        "photo": [
            {
                "id": "44735745481",
                "owner": "160843223@N06",
                "secret": "8fb5bc2e08",
                "server": "1897",
                "farm": 2,
                "title": "Static And Kinetic Friction Tester (C.o.f Tester) Manufacturers And Suppliers",
                "ispublic": 1,
                "isfriend": 0,
                "isfamily": 0
            },
            {
                "id": "29799069407",
                "owner": "104706439@N08",
                "secret": "b862a4782d",
                "server": "1858",
                "farm": 2,
                "title": "Testing",
                "ispublic": 1,
                "isfriend": 0,
                "isfamily": 0
            },
            {
                "id": "44686310672",
                "owner": "104706439@N08",
                "secret": "761d4666e4",
                "server": "1888",
                "farm": 2,
                "title": "Testing",
                "ispublic": 1,
                "isfriend": 0,
                "isfamily": 0
            }
        ]
    },
    "stat": "ok"
}
